…
```
## See spec(...) for full column specifications.
```

```r
coldata
```

```
## # A tibble: 24 x 27
##     BioSample_s Experiment_s LoadDate_s MBases_l MBytes_l      Run_s
##           <chr>        <chr>     <date>    <int>    <int>      <chr>
##  1 SAMN03020276    SRX692912 2015-12-02     1104      807 SRR1565926
##  2 SAMN03020277    SRX692913 2015-12-02     1098      805 SRR1565927
##  3 SAMN03020278    SRX692914 2015-12-02     1143      838 SRR1565928
##  4 SAMN03020279    SRX692915 2015-12-02     1178      863 SRR1565929
##  5 SAMN03020280    SRX692916 2015-12-02      934      683 SRR1565930
##  6 SAMN03020281    SRX692917 2015-12-02     1146      846 SRR1565931
##  7 SAMN03020282    SRX692918 2015-12-02     1128      830 SRR1565932
##  8 SAMN03020283    SRX692919 2015-12-02     1145      839 SRR1565933
##  9 SAMN03020284    SRX692920 2015-12-02     1106      815 SRR1565934
## 10 SAMN03020285    SRX692921 2015-12-02     1185      865 SRR1565935
## # ... with 14 more rows, and 21 more variables: SRA_Sample_s <chr>,
## #   Sample_Name_s <chr>, disease_state_s <chr>, treatment_s <chr>,
## #   Assay_Type_s <chr>, AvgSpotLen_l <int>, BioProject_s <chr>,
## #   Center_Name_s <chr>, Consent_s <chr>, InsertSize_l <int>,
## #   Instrument_s <chr>, LibraryLayout_s <chr>, LibrarySelection_s <chr>,
## #   LibrarySource_s <chr>, Organism_s <chr>, Platform_s <chr>,
## #   ReleaseDate_s <date>, SRA_Study_s <chr>, cell_type_s <chr>,
## #   passages_s <int>, source_name_s <chr>
```
…
